{"received_at":"2026-07-20T23:29:38.666474+00:00","request":{"account_risk_aggregates":true,"earnings_calendar":true,"exclude_account_person_identifiers":true,"historicals":{"interval":"5minute","symbols":["SPY","QQQ","SPY"]},"market_status":true,"option_chains":true,"option_instruments":true,"option_quotes":true,"underlying":"SPY"},"response":{"account_risk_aggregates":{"buying_power":{"buying_power":"300.0000","display_currency":"USD","unleveraged_buying_power":"300.0000"},"cash":"300","crypto_value":"0","currency":"USD","equity_value":"0","event_contracts_value":"0","fixed_income_value":"0","futures_value":"0","mutual_funds_value":"0","options_value":"0","pending_deposits":"0","total_value":"300"},"earnings_calendar_request":{"days":7,"start_date":"2026-07-20"},"equity_quote":{"results":[{"close":{"date":"2026-07-17","interpolated":false,"price":"743.29","source":"sip-list-exchange-close","symbol":"SPY"},"quote":{"adjusted_previous_close":"743.290000","ask_price":"742.540000","bid_price":"742.460000","has_traded":true,"last_non_reg_trade_price":"742.450100","last_trade_price":"742.100000","previous_close":"743.290000","previous_close_date":"2026-07-17","state":"active","symbol":"SPY","venue_ask_time":"2026-07-20T23:28:49.233075901Z","venue_bid_time":"2026-07-20T23:28:49.233075901Z","venue_last_non_reg_trade_time":"2026-07-20T23:28:06.245089036Z","venue_last_trade_time":"2026-07-20T19:59:59.999438083Z"}}]},"historicals_request":{"adjustment_type":"none","bounds":"regular","interval":"5minute","start_time":"2026-07-20T00:00:00Z","symbols":["SPY","QQQ","SPY"]},"market_status":null,"option_instruments_page":{"count":100,"next":"http://edge-internal.brokeback-shard-router.region.rh/options/instruments/?chain_symbol=SPY&cursor=bz04JnA9ODAuMDAwMA%3D%3D&state=active"},"option_quotes_page":{"closes_error":"closes omitted: this tool returns the official close for up to 20 contracts per call; quotes are still included for all 100 requested contracts","count":100,"freshest_updated_at":"2026-07-20T20:14:59.965944125Z"},"session_boundaries":null},"schema_version":1,"snapshot_id":"cad6b09a-2ca6-431c-bccb-2d5efb7e7833","source":"ROBINHOOD_OFFICIAL_MCP","source_updated_at":"2026-07-20T23:28:49.233075+00:00"}